{
  "pdf_path": "/Users/huyin/Downloads/【A11打印版PPT】《排列组合五大底层策略&最全题型方法》.pdf",
  "model": "google.gemini-3.1-pro-global",
  "page_count": 18,
  "total_seconds": 569.9,
  "delay_seconds": 8,
  "total_items": 34,
  "total_resources": 27,
  "total_figures": 13,
  "total_figures_cropped": 13,
  "total_figures_bbox_invalid": 0,
  "per_page": [
    {
      "page": 1,
      "latencyMs": 55963,
      "tokenUsage": {
        "input": 1717,
        "output": 1984
      },
      "retries": 0,
      "parseOk": true,
      "items": 7,
      "resources": 1,
      "figuresInItems": 1,
      "figuresCropped": 1,
      "figuresBboxInvalid": 0
    },
    {
      "page": 2,
      "latencyMs": 38014,
      "tokenUsage": {
        "input": 1717,
        "output": 1066
      },
      "retries": 0,
      "parseOk": true,
      "items": 4,
      "resources": 2,
      "figuresInItems": 2,
      "figuresCropped": 2,
      "figuresBboxInvalid": 0
    },
    {
      "page": 3,
      "latencyMs": 16530,
      "tokenUsage": {
        "input": 1717,
        "output": 1505
      },
      "retries": 0,
      "parseOk": true,
      "items": 3,
      "resources": 3,
      "figuresInItems": 0,
      "figuresCropped": 0,
      "figuresBboxInvalid": 0
    },
    {
      "page": 4,
      "latencyMs": 24854,
      "tokenUsage": {
        "input": 1717,
        "output": 527
      },
      "retries": 0,
      "parseOk": true,
      "items": 1,
      "resources": 2,
      "figuresInItems": 0,
      "figuresCropped": 0,
      "figuresBboxInvalid": 0
    },
    {
      "page": 5,
      "latencyMs": 34213,
      "tokenUsage": {
        "input": 1717,
        "output": 886
      },
      "retries": 0,
      "parseOk": true,
      "items": 1,
      "resources": 3,
      "figuresInItems": 0,
      "figuresCropped": 0,
      "figuresBboxInvalid": 0
    },
    {
      "page": 6,
      "latencyMs": 38053,
      "tokenUsage": {
        "input": 1717,
        "output": 889
      },
      "retries": 0,
      "parseOk": true,
      "items": 3,
      "resources": 1,
      "figuresInItems": 0,
      "figuresCropped": 0,
      "figuresBboxInvalid": 0
    },
    {
      "page": 7,
      "latencyMs": 24549,
      "tokenUsage": {
        "input": 1717,
        "output": 877
      },
      "retries": 0,
      "parseOk": true,
      "items": 3,
      "resources": 2,
      "figuresInItems": 0,
      "figuresCropped": 0,
      "figuresBboxInvalid": 0
    },
    {
      "page": 8,
      "latencyMs": 30190,
      "tokenUsage": {
        "input": 1717,
        "output": 976
      },
      "retries": 0,
      "parseOk": true,
      "items": 2,
      "resources": 2,
      "figuresInItems": 0,
      "figuresCropped": 0,
      "figuresBboxInvalid": 0
    },
    {
      "page": 9,
      "latencyMs": 12865,
      "tokenUsage": {
        "input": 1717,
        "output": 920
      },
      "retries": 0,
      "parseOk": true,
      "items": 1,
      "resources": 3,
      "figuresInItems": 1,
      "figuresCropped": 1,
      "figuresBboxInvalid": 0
    },
    {
      "page": 10,
      "latencyMs": 28113,
      "tokenUsage": {
        "input": 1718,
        "output": 2633
      },
      "retries": 0,
      "parseOk": true,
      "items": 3,
      "resources": 2,
      "figuresInItems": 6,
      "figuresCropped": 6,
      "figuresBboxInvalid": 0
    },
    {
      "page": 11,
      "latencyMs": 21994,
      "tokenUsage": {
        "input": 1718,
        "output": 150
      },
      "retries": 0,
      "parseOk": true,
      "items": 0,
      "resources": 1,
      "figuresInItems": 0,
      "figuresCropped": 0,
      "figuresBboxInvalid": 0
    },
    {
      "page": 12,
      "latencyMs": 5182,
      "tokenUsage": {
        "input": 1718,
        "output": 15
      },
      "retries": 0,
      "parseOk": true,
      "items": 0,
      "resources": 0,
      "figuresInItems": 0,
      "figuresCropped": 0,
      "figuresBboxInvalid": 0
    },
    {
      "page": 13,
      "latencyMs": 5523,
      "tokenUsage": {
        "input": 1718,
        "output": 15
      },
      "retries": 0,
      "parseOk": true,
      "items": 0,
      "resources": 0,
      "figuresInItems": 0,
      "figuresCropped": 0,
      "figuresBboxInvalid": 0
    },
    {
      "page": 14,
      "latencyMs": 5110,
      "tokenUsage": {
        "input": 1718,
        "output": 15
      },
      "retries": 0,
      "parseOk": true,
      "items": 0,
      "resources": 0,
      "figuresInItems": 0,
      "figuresCropped": 0,
      "figuresBboxInvalid": 0
    },
    {
      "page": 15,
      "latencyMs": 32570,
      "tokenUsage": {
        "input": 1718,
        "output": 963
      },
      "retries": 0,
      "parseOk": true,
      "items": 2,
      "resources": 1,
      "figuresInItems": 2,
      "figuresCropped": 2,
      "figuresBboxInvalid": 0
    },
    {
      "page": 16,
      "latencyMs": 34772,
      "tokenUsage": {
        "input": 1718,
        "output": 598
      },
      "retries": 0,
      "parseOk": true,
      "items": 0,
      "resources": 3,
      "figuresInItems": 0,
      "figuresCropped": 0,
      "figuresBboxInvalid": 0
    },
    {
      "page": 17,
      "latencyMs": 18873,
      "tokenUsage": {
        "input": 1718,
        "output": 1730
      },
      "retries": 0,
      "parseOk": true,
      "items": 4,
      "resources": 1,
      "figuresInItems": 1,
      "figuresCropped": 1,
      "figuresBboxInvalid": 0
    },
    {
      "page": 18,
      "latencyMs": 5998,
      "tokenUsage": {
        "input": 1718,
        "output": 15
      },
      "retries": 0,
      "parseOk": true,
      "items": 0,
      "resources": 0,
      "figuresInItems": 0,
      "figuresCropped": 0,
      "figuresBboxInvalid": 0
    }
  ]
}